[
    {
        "fields": {
            "content_type": null,
            "enabled": true,
            "hidden_from_navigation": false,
            "hidden_from_robots": false,
            "hidden_from_sitemap": false,
            "last_modified": "2015-01-01 00:00:00+1000",
            "level": 0,
            "lft": 1,
            "object_id": null,
            "parent": null,
            "require_https": false,
            "restrict_to_groups": [],
            "rght": 2,
            "short_title": "",
            "slug": "",
            "slug_locked": false,
            "title": "Home",
            "tree_id": 1
        },
        "model": "common.sitemapnode",
        "pk": 1
    },
    {
        "fields": {
            "content_type": null,
            "enabled": true,
            "hidden_from_navigation": false,
            "hidden_from_robots": false,
            "hidden_from_sitemap": false,
            "last_modified": "2015-01-01 00:00:00+1000",
            "level": 0,
            "lft": 1,
            "object_id": null,
            "parent": null,
            "require_https": false,
            "restrict_to_groups": [],
            "rght": 2,
            "short_title": "",
            "slug": "",
            "slug_locked": false,
            "title": "Second",
            "tree_id": 2
        },
        "model": "common.sitemapnode",
        "pk": 2
    }
]
